{
    "project_name": "Project Name",
    "repo_name": "{{ cookiecutter.project_name.lower().replace(' ', '-') }}",
    "author": "Radek Sprta",
    "email": "mail@radeksprta.eu",
    "gitlab_name": "{{ cookiecutter.author.lower().replace(' ', '-') }}",
    "version": "0.0.1",
    "description": "Template for Python projects",
    "license": ["MIT License", "GNU General Public License v3" ],
	"use_pytest": "y"
}
